<svg xmlns="http://www.w3.org/2000/svg" width="470" height="272" viewBox="0 0 470 272">
  <path id="indele03" d="M384.075,54.318q-2.171,0-4.315.108A106.99,106.99,0,0,0,306,25.046a108.409,108.409,0,0,0-13.4.832A107.3,107.3,0,0,0,140.3,38.587a106.541,106.541,0,0,0-33.368-5.333C47.873,33.254,0,81.265,0,140.489S47.873,247.723,106.929,247.723a106.365,106.365,0,0,0,39.509-7.561,107.3,107.3,0,0,0,152.26.307c2.413.162,4.847.253,7.3.253a106.8,106.8,0,0,0,57.331-16.6A86.145,86.145,0,1,0,384.075,54.318" fill="#b4dceb"/>
</svg>
