<svg xmlns="http://www.w3.org/2000/svg" width="28.272" height="29.405" viewBox="0 0 28.272 29.405">
  <g id="pagEx05-25" transform="translate(4.241 4.241)">
    <path id="Line_6" data-name="Line 6" d="M0,0,19.79,20.923" fill="none" stroke="#fff" stroke-linecap="square" stroke-miterlimit="10" stroke-width="6"/>
    <path id="Line_6-2" data-name="Line 6" d="M0,0-19.79,20.923" transform="translate(19.79)" fill="none" stroke="#fff" stroke-linecap="square" stroke-miterlimit="10" stroke-width="6"/>
  </g>
</svg>
